digraph finite_state_machine {
    rankdir=LR;
    size="10,10"
    node [shape = doublecircle]; DOCUMENTATION ATTR ATTRI OPENING CLOSING SYMBOL COMMENT STRING
    node [shape = doublecircle]; BSTRING BYTE CHAR NUMBER IDENT IDENT2 KEYWORD WHITESPACE
    node [shape = circle];
    START -> DOC1 [ label = "/" ];
    DOC1 -> DOC2 [ label = "/" ];
    DOC2 -> DOC3 [ label = "/" ];
    DOC3 -> DOC3 [label = "not(EOL)" ];
    DOC3 -> DOCUMENTATION [label = "EOL" ];

    START -> ATTR [ label = "#" ];
    ATTR -> ATTRI [ label = "!" ];

    START -> C1 [ label = "/" ];
    C1 -> C2 [ label = "*" ];
    C2 -> C2 [ label = "not(EOF)" ];
    C2 -> C3 [ label = "*" ];
    C3 -> C2 [ label = "not(/)" ];
    C3 -> C3 [ label = "*" ];
    C3 -> COMMENT [ label = "/" ];


    START -> OPENING [ label = "(" ];
    START -> OPENING [ label = "{" ];
    START -> OPENING [ label = "[" ];
    START -> CLOSING [ label = ")" ];
    START -> CLOSING [ label = "}" ];
    START -> CLOSING [ label = "]" ];

    START -> SYMBOL [ label = ":" ];
    START -> SYMBOL [ label = ";" ];
    START -> SYMBOL [ label = "," ];
    START -> SYMBOL [ label = "..." ];

    START -> STRLIT [ label = "\"" ];
    STRLIT -> STRLIT [ label = "not(\")"];
    STRLIT -> STRESC [ label = "\\" ];
    STRESC -> STRLIT;
    STRLIT -> STRING [ label = "\"" ];


    START -> BLIT [ label = "b" ];
    BLIT -> BSTR [ label = "\"" ];
    BSTR -> BSTR [ label = "not(\")"];
    BSTR -> BSTRESC [ label = "\\" ];
    BSTRESC -> BSTR;
    BSTR -> BSTRING [ label = "\"" ];

    BLIT -> B1 [ label = "'" ];
    B1 -> B1 [ label = "not(')" ];
    B1 -> BESC [ label = "\\" ];
    BESC -> B1;
    B1 -> BYTE [ label = "'"];

    START -> CH1 [ label = "'" ];
    CH1 -> CH1 [ label = "not(')" ];
    CH1 -> CHESC [ label = "\\" ];
    CHESC -> CH1;
    CH1 -> CHAR [ label = "'"];

    START -> NUMBER [ label = "0..9" ];
    NUMBER -> NUMBER [ label = "o"];
    NUMBER -> NUMBER [ label = "x"];
    NUMBER -> NUMBER [ label = "_"];
    NUMBER -> NUMBER [ label = "A..F" ];
    NUMBER -> NUMBER [ label = "a..f" ];
    NUMBER -> NUMBER [ label = "0..9" ];

    START -> IDENT [ label = "AltID Init" ];
    IDENT -> IDENT2 [ label = "AltID Cont" ];
    IDENT2 -> IDENT2 [ label = "AltID Cont" ];
    START -> KA [ label = "a" ];
    START -> KB [ label = "b" ];
    START -> KC [ label = "c" ];
    START -> KE [ label = "e" ];
    START -> KF [ label = "f" ];
    START -> KI [ label = "i" ];
    START -> KL [ label = "l" ];
    START -> KM [ label = "m" ];
    START -> KR [ label = "r" ];
    START -> KS [ label = "S" ];
    START -> Ks [ label = "s" ];
    START -> KT [ label = "t" ];
    START -> KW [ label = "w" ];
    KA -> KEYWORD [ label = "s" ];
    KB -> BR1 [ label = "r" ];
    BR1 -> BR2 [ label = "e" ];
    BR2 -> BR3 [ label = "a" ];
    BR3 -> KEYWORD [ label = "k" ];
    KC -> CN1 [ label = "o" ];
    CN1 -> CN2 [ label = "n" ];
    CN2 -> CN3 [ label = "t" ];
    CN3 -> CN4 [ label = "i" ];
    CN4 -> CN5 [ label = "n" ];
    CN5 -> KeE [ label = "u" ];
    KeE -> KEYWORD [ label = "e" ];
    KE -> EL1 [ label = "l" ];
    EL1 -> KeE [ label = "s" ];
    KE -> EN1 [ label = "n" ];
    EN1 -> EN2 [ label = "u" ];
    EN2 -> KEYWORD [ label = "m" ];
    KE -> EX1 [ label = "x" ];
    EX1 -> EX2 [ label = "t" ];
    EX2 -> EX3 [ label = "e" ];
    EX3 -> EX4 [ label = "r" ];
    EX4 -> KEYWORD [ label = "n" ];
    KF -> FA1 [ label = "a" ];
    FA1 -> FA2 [ label = "l" ];
    FA2 -> KeE [ label = "s" ];
    KF -> FO1 [ label = "o" ];
    FO1 -> KEYWORD [ label = "r" ];
    KI -> KEYWORD [ label = "f" ];
    KI -> IM1 [ label = "m" ];
    IM1 -> IM2 [ label = "p" ];
    IM2 -> KEYWORD [ label = "l" ];
    KI -> KEYWORD [ label = "n" ];
    KL -> LE1 [ label = "e" ];
    LE1 -> KEYWORD [ label = "t" ];
    KM -> MA1 [ label = "a" ];
    MA1 -> MA2 [ label = "t" ];
    MA2 -> MA3 [ label = "c" ];
    MA3 -> KEYWORD [ label = "h" ];
    KM -> MU1 [ label = "u" ];
    MU1 -> KEYWORD [ label = "t" ];
    KR -> RE1 [ label = "e" ];
    RE1 -> RE2 [ label = "t" ];
    RE2 -> RE3 [ label = "u" ];
    RE3 -> RE4 [ label = "r" ];
    RE4 -> KEYWORD [ label = "n" ];
    KS -> SE1 [ label = "e" ];
    SE1 -> SE2 [ label = "l" ];
    SE2 -> KEYWORD [ label = "f" ];
    Ks -> ST1 [ label = "t" ];
    ST1 -> ST2 [ label = "r" ];
    ST2 -> ST3 [ label = "u" ];
    ST3 -> ST4 [ label = "c" ];
    ST4 -> KEYWORD [ label = "t" ];
    Ks -> SU1 [ label = "u" ];
    SU1 -> SU2 [ label = "p" ];
    SU2 -> SU3 [ label = "e" ];
    SU3 -> KEYWORD [ label = "r" ];
    KT -> TR1 [ label = "r" ];
    TR1 -> KeE [ label = "u" ];
    TR1 -> TR2 [ label = "a" ];
    TR2 -> TR3 [ label = "i" ];
    TR3 -> KEYWORD [ label = "t" ];
    KT -> TY1 [ label = "y" ];
    TY1 -> KeE [ label = "p" ];
    KW -> WH1 [ label = "h" ];
    WH1 -> WH2 [ label = "i" ];
    WH2 -> KeE [ label = "l" ];

    START -> WHITESPACE [ label = "UNICODE whitespace" ];
    WHITESPACE -> WHITESPACE [ label = "UNICODE whitespace" ];
}
